{
	"info": {
		"_postman_id": "c7e0785b-ad0e-48bd-88be-0a0a750fe732",
		"name": "aikona",
		"schema": "https://schema.getpostman.com/json/collection/v2.1.0/collection.json"
	},
	"item": [
		{
			"name": "local aikona",
			"request": {
				"method": "POST",
				"header": [
					{
						"key": "Content-Type",
						"value": "application/json"
					}
				],
				"body": {
					"mode": "raw",
					"raw": "{\"dms_id\":\"be184fe9-4370-49c0-89a7-d78a5548dffb\"}"
				},
				"url": {
					"raw": "localhost:5333/process-document",
					"host": [
						"localhost"
					],
					"port": "5333",
					"path": [
						"process-document"
					]
				}
			},
			"response": []
		},
		{
			"name": "aikona uat",
			"request": {
				"method": "POST",
				"header": [
					{
						"key": "Content-Type",
						"value": "application/json"
					}
				],
				"body": {
					"mode": "raw",
					"raw": "{\"dms_id\":\"be184fe9-4370-49c0-89a7-d78a5548dffb\"}"
				},
				"url": {
					"raw": "aikona-uat.techbranch.ninja/process-document",
					"host": [
						"aikona-uat",
						"techbranch",
						"ninja"
					],
					"path": [
						"process-document"
					]
				}
			},
			"response": []
		},
		{
			"name": "aikona dev",
			"request": {
				"method": "POST",
				"header": [
					{
						"key": "Content-Type",
						"value": "application/json"
					}
				],
				"body": {
					"mode": "raw",
					"raw": "{\"dms_id\":\"317808a0-401e-4877-85ef-99b5e096439a\"}"
				},
				"url": {
					"raw": "aikona-dev.techbranch.ninja/process-document",
					"host": [
						"aikona-dev",
						"techbranch",
						"ninja"
					],
					"path": [
						"process-document"
					]
				}
			},
			"response": []
		}
	]
}